team
…
## Warning: Column `COUNTY` joining factors with different levels, coercing to
## character vector

countacc = countacc %>% mutate(County_Name = tolower(County_Name))
countacc = countacc %>% mutate("State Name" = tolower(countacc$`State Name`))
countaccgroup = countacc %>% group_by(County_Name,`State Name`) %>% summarise(total_crashes = n())
countaccgroup = inner_join(countaccgroup,counties, by=c("County_Name","State Name"="region"))
#This makes the levels we are going to put in the factor
totCrashGroups <- quantile(countaccgroup$total_crashes, c(0.0,0.25,0.50,0.75,1.0)) 

#Apply the levels to the factors and to the dataframe
countaccgroup$totCrashGroups <- as.factor(cut(countaccgroup$total_crashes, totCrashGroups))
countaccgroup %>% group_by("County_Name") 

## # A tibble: 81,011 x 9
## # Groups:   "County_Name" [1]
##    County_Name `State Name` total_crashes  long   lat group order
##    <chr>       <chr>                <int> <dbl> <dbl> <dbl> <int>
##  1 abbeville   south carol            48 -82.2  34.4  2285 67181
##  2 abbeville   south carol            48 -82.3  34.4  2285 67182
##  3 abbeville   south carol            48 -82.3  34.3  2285 67183
##  4 abbeville   south carol            48 -82.3  34.3  2285 67184
##  5 abbeville   south carol            48 -82.3  34.3  2285 67185
##  6 abbeville   south carol            48 -82.3  34.3  2285 67186
##  7 abbeville   south carol            48 -82.2  34.2  2285 67187
##  8 abbeville   south carol            48 -82.2  34.2  2285 67188
##  9 abbeville   south carol            48 -82.2  34.2  2285 67189
## 10 abbeville   south carol            48 -82.3  34.1  2285 67190
## #  with 81,001 more rows, and 2 more variables: totCrashGroups <fct>,
## #   `"County_Name"` <chr>
…
